<?xml version="1.0" encoding="UTF-8" standalone="no"?>
<!-- Created with Inkscape (http://www.inkscape.org/) -->

<svg
   xmlns:dc="http://purl.org/dc/elements/1.1/"
   xmlns:cc="http://creativecommons.org/ns#"
   xmlns:rdf="http://www.w3.org/1999/02/22-rdf-syntax-ns#"
   xmlns:svg="http://www.w3.org/2000/svg"
   xmlns="http://www.w3.org/2000/svg"
   xmlns:sodipodi="http://sodipodi.sourceforge.net/DTD/sodipodi-0.dtd"
   xmlns:inkscape="http://www.inkscape.org/namespaces/inkscape"
   width="350mm"
   height="350.00049mm"
   viewBox="0 0 350 350.00049"
   version="1.1"
   id="svg8"
   inkscape:version="0.92.3 (2405546, 2018-03-11)"
   sodipodi:docname="Lower3.svg"
   inkscape:export-filename="/home/nocity/Desktop/Dump/FirstEnv.png"
   inkscape:export-xdpi="96"
   inkscape:export-ydpi="96">
  <defs
     id="defs2" />
  <sodipodi:namedview
     id="base"
     pagecolor="#ffffff"
     bordercolor="#666666"
     borderopacity="1.0"
     inkscape:pageopacity="0.0"
     inkscape:pageshadow="2"
     inkscape:zoom="0.5"
     inkscape:cx="603.78611"
     inkscape:cy="719.47124"
     inkscape:document-units="mm"
     inkscape:current-layer="layer1"
     showgrid="false"
     inkscape:window-width="1920"
     inkscape:window-height="1055"
     inkscape:window-x="1920"
     inkscape:window-y="0"
     inkscape:window-maximized="1">
    <inkscape:grid
       type="xygrid"
       id="grid897"
       units="mm"
       spacingx="0.99999999"
       spacingy="0.99999999"
       originx="-35.000001"
       originy="-414.99948" />
  </sodipodi:namedview>
  <metadata
     id="metadata5">
    <rdf:RDF>
      <cc:Work
         rdf:about="">
        <dc:format>image/svg+xml</dc:format>
        <dc:type
           rdf:resource="http://purl.org/dc/dcmitype/StillImage" />
        <dc:title></dc:title>
      </cc:Work>
    </rdf:RDF>
  </metadata>
  <g
     inkscape:label="Layer"
     inkscape:groupmode="layer"
     id="layer1"
     transform="translate(-35,467.99999)">
    <rect
       y="-468"
       x="34.999992"
       height="349.99997"
       width="350"
       id="rect823"
       style="fill:#e474c3;fill-opacity:1;stroke:none;stroke-width:3;stroke-miterlimit:4;stroke-dasharray:none;stroke-opacity:1" />
    <g
       transform="matrix(1.4146155,0,0,1.4146155,86.044125,-424.80822)"
       id="g891" />
    <path
       style="fill:#400000;fill-opacity:1;stroke:#000000;stroke-width:0;stroke-linecap:butt;stroke-linejoin:miter;stroke-miterlimit:4;stroke-dasharray:none;stroke-opacity:1"
       d="m 95.843257,-137.43578 151.553753,-40.60865 -34.7565,-129.6745 14.72145,-35.2403 -151.382153,40.54205 -14.75605,35.27125 z"
       id="path842-3"
       inkscape:connector-curvature="0"
       sodipodi:nodetypes="ccccccc" />
    <g
       id="g938"
       transform="matrix(5,0,0,5,257.22083,1817.298)">
      <rect
         y="-430.06616"
         x="-0.029177796"
         height="4.9999948"
         width="19.999994"
         id="rect1029"
         style="fill:#400000;fill-opacity:1;stroke-width:0.26458332" />
      <rect
         transform="rotate(-25.057549)"
         style="fill:#400000;fill-opacity:1;stroke-width:0.26458332"
         id="rect1031"
         width="19.999994"
         height="4.9999948"
         x="182.54231"
         y="-395.50781" />
      <rect
         y="-269.66406"
         x="347.83466"
         height="4.9999948"
         width="19.999994"
         id="rect1033"
         style="fill:#400000;fill-opacity:1;stroke-width:0.26458332"
         transform="rotate(-53.129932)" />
    </g>
  </g>
</svg>
