<?xml version="1.0" encoding="UTF-8" standalone="no"?>
<!-- Created with Inkscape (http://www.inkscape.org/) -->

<svg
   xmlns:dc="http://purl.org/dc/elements/1.1/"
   xmlns:cc="http://creativecommons.org/ns#"
   xmlns:rdf="http://www.w3.org/1999/02/22-rdf-syntax-ns#"
   xmlns:svg="http://www.w3.org/2000/svg"
   xmlns="http://www.w3.org/2000/svg"
   xmlns:sodipodi="http://sodipodi.sourceforge.net/DTD/sodipodi-0.dtd"
   xmlns:inkscape="http://www.inkscape.org/namespaces/inkscape"
   width="350mm"
   height="350.00049mm"
   viewBox="0 0 350 350.00049"
   version="1.1"
   id="svg8"
   inkscape:version="0.92.3 (2405546, 2018-03-11)"
   sodipodi:docname="Pit4.svg"
   inkscape:export-filename="/home/nocity/Desktop/Dump/FirstEnv.png"
   inkscape:export-xdpi="96"
   inkscape:export-ydpi="96">
  <defs
     id="defs2" />
  <sodipodi:namedview
     id="base"
     pagecolor="#ffffff"
     bordercolor="#666666"
     borderopacity="1.0"
     inkscape:pageopacity="0.0"
     inkscape:pageshadow="2"
     inkscape:zoom="0.65540979"
     inkscape:cx="455.89046"
     inkscape:cy="858.52807"
     inkscape:document-units="mm"
     inkscape:current-layer="g873"
     showgrid="false"
     inkscape:window-width="1920"
     inkscape:window-height="1055"
     inkscape:window-x="1920"
     inkscape:window-y="0"
     inkscape:window-maximized="1">
    <inkscape:grid
       type="xygrid"
       id="grid897"
       units="mm"
       spacingx="0.99999999"
       spacingy="0.99999999"
       originx="-35.000001"
       originy="-414.99948" />
  </sodipodi:namedview>
  <metadata
     id="metadata5">
    <rdf:RDF>
      <cc:Work
         rdf:about="">
        <dc:format>image/svg+xml</dc:format>
        <dc:type
           rdf:resource="http://purl.org/dc/dcmitype/StillImage" />
        <dc:title></dc:title>
      </cc:Work>
    </rdf:RDF>
  </metadata>
  <g
     inkscape:label="Layer"
     inkscape:groupmode="layer"
     id="layer1"
     transform="translate(-35,467.99999)">
    <rect
       y="-468"
       x="-385"
       height="349.99997"
       width="350"
       id="rect823"
       style="fill:#74d0e4;fill-opacity:1;stroke:none;stroke-width:3;stroke-miterlimit:4;stroke-dasharray:none;stroke-opacity:1"
       transform="scale(-1,1)" />
    <g
       transform="matrix(0.5,0,0,0.5,37.925593,-368.40731)"
       id="g873">
      <path
         style="fill:#400000;fill-opacity:1;stroke:#000000;stroke-width:0;stroke-linecap:butt;stroke-linejoin:miter;stroke-miterlimit:4;stroke-dasharray:none;stroke-opacity:1"
         d="m 82.871278,103.09821 h 31.277532 l 0.0324,150.95512 -31.293739,0.0147 z"
         id="path869"
         inkscape:connector-curvature="0"
         sodipodi:nodetypes="ccccc" />
      <path
         sodipodi:nodetypes="ccccccc"
         inkscape:connector-curvature="0"
         id="path842-3"
         d="m 82.883726,91.011366 30.311964,-8.122064 -6.95159,-25.935932 2.94442,-7.048333 -30.277695,8.108535 -2.951336,7.054536 z"
         style="fill:#400000;fill-opacity:1;stroke:#000000;stroke-width:0;stroke-linecap:butt;stroke-linejoin:miter;stroke-miterlimit:4;stroke-dasharray:none;stroke-opacity:1" />
      <g
         transform="matrix(0.22222995,-0.05954634,0.05954634,0.22222995,109.51641,207.67955)"
         id="layer1-5"
         inkscape:label="Layer">
        <path
           sodipodi:nodetypes="cccccccccsccccsccccc"
           inkscape:connector-curvature="0"
           id="rect814"
           d="m 190,-622.99999 v 40 h 10 l -73.22069,196.01918 1.28198,12.29587 L 199.9999,-183 H 190 v 40.00015 h 29.99972 c 0,0 240.00034,0 240.00034,-240.00032 0,-240 -240.00034,-239.99982 -240.00034,-239.99982 z m 20,40 h 10 c 0,0 200,0 200,199.99982 C 420,-183 220,-183 220,-183 h -10.00019 l -77.81608,-192.77523 -0.78584,-11.6374 z"
           style="fill:#307f90;fill-opacity:1;stroke:none;stroke-width:0.26499999;stroke-miterlimit:4;stroke-dasharray:none" />
      </g>
      <path
         style="fill:#307f90;fill-opacity:1;stroke:none;stroke-width:0.09487619px;stroke-linecap:butt;stroke-linejoin:miter;stroke-opacity:1"
         d="m 375.0293,522.95117 4.91992,14.39649 -110.375,37.71093 -19.31445,-9.47851 -43.18946,14.75586 19.31446,9.47851 3.27929,9.59766 -9.47656,19.31445 43.18945,-14.75586 9.47657,-19.31445 110.375,-37.71094 4.91796,14.39649 36.63086,-33.95118 z"
         transform="matrix(0.52916667,0,0,0.52916667,-5.851186,-199.18536)"
         id="path817"
         inkscape:connector-curvature="0" />
    </g>
    <rect
       style="fill:#307f90;fill-opacity:1;stroke:none;stroke-width:5;stroke-miterlimit:4;stroke-dasharray:none;stroke-opacity:1"
       id="rect839"
       width="84.999992"
       height="120"
       x="35"
       y="-238.00002" />
    <rect
       y="-238.00002"
       x="300"
       height="120"
       width="84.999992"
       id="rect841"
       style="fill:#307f90;fill-opacity:1;stroke:none;stroke-width:5;stroke-miterlimit:4;stroke-dasharray:none;stroke-opacity:1" />
  </g>
</svg>
