<?xml version="1.0" encoding="UTF-8" standalone="no"?>
<!-- Created with Inkscape (http://www.inkscape.org/) -->

<svg
   xmlns:dc="http://purl.org/dc/elements/1.1/"
   xmlns:cc="http://creativecommons.org/ns#"
   xmlns:rdf="http://www.w3.org/1999/02/22-rdf-syntax-ns#"
   xmlns:svg="http://www.w3.org/2000/svg"
   xmlns="http://www.w3.org/2000/svg"
   xmlns:sodipodi="http://sodipodi.sourceforge.net/DTD/sodipodi-0.dtd"
   xmlns:inkscape="http://www.inkscape.org/namespaces/inkscape"
   width="350mm"
   height="350.00049mm"
   viewBox="0 0 350 350.00049"
   version="1.1"
   id="svg8"
   inkscape:version="0.92.5 (2060ec1f9f, 2020-04-08)"
   sodipodi:docname="PitFailPlank4.svg"
   inkscape:export-filename="/home/nocity/Desktop/Dump/FirstEnv.png"
   inkscape:export-xdpi="96"
   inkscape:export-ydpi="96">
  <defs
     id="defs2">
    <clipPath
       clipPathUnits="userSpaceOnUse"
       id="clipPath1017">
      <path
         inkscape:connector-curvature="0"
         id="path1019"
         d="m 273.06764,-485.66299 a 73.646858,73.646858 0 0 0 -47.72112,17.663 H 35 v 167.99594 a 73.646858,73.646858 0 0 0 -2.283582,-0.1142 73.646858,73.646858 0 0 0 -73.646667,73.64667 73.646858,73.646858 0 0 0 73.646667,73.64667 73.646858,73.646858 0 0 0 66.556663,-42.32455 73.646858,73.646858 0 0 0 33.351969,8.07029 73.646858,73.646858 0 0 0 73.17641,-65.61924 73.646858,73.646858 0 0 0 8.46305,0.53589 73.646858,73.646858 0 0 0 73.64667,-73.64667 73.646858,73.646858 0 0 0 -1.36943,-13.84618 73.646858,73.646858 0 0 0 60.17308,-72.36044 73.646858,73.646858 0 0 0 -73.64719,-73.64718 z"
         style="fill:#000000;fill-opacity:1;stroke:none;stroke-width:5;stroke-miterlimit:4;stroke-dasharray:none;stroke-opacity:1" />
    </clipPath>
  </defs>
  <sodipodi:namedview
     id="base"
     pagecolor="#ffffff"
     bordercolor="#666666"
     borderopacity="1.0"
     inkscape:pageopacity="0.0"
     inkscape:pageshadow="2"
     inkscape:zoom="0.5"
     inkscape:cx="-116.85719"
     inkscape:cy="811.24309"
     inkscape:document-units="mm"
     inkscape:current-layer="g996"
     showgrid="false"
     inkscape:window-width="1920"
     inkscape:window-height="1055"
     inkscape:window-x="1920"
     inkscape:window-y="0"
     inkscape:window-maximized="1">
    <inkscape:grid
       type="xygrid"
       id="grid897"
       units="mm"
       spacingx="0.99999999"
       spacingy="0.99999999"
       originx="-35.000001"
       originy="-414.99948" />
  </sodipodi:namedview>
  <metadata
     id="metadata5">
    <rdf:RDF>
      <cc:Work
         rdf:about="">
        <dc:format>image/svg+xml</dc:format>
        <dc:type
           rdf:resource="http://purl.org/dc/dcmitype/StillImage" />
        <dc:title />
      </cc:Work>
    </rdf:RDF>
  </metadata>
  <g
     inkscape:label="Layer"
     inkscape:groupmode="layer"
     id="layer1"
     transform="translate(-35,467.99999)">
    <rect
       style="fill:#74d0e4;fill-opacity:1;stroke:none;stroke-width:15;stroke-miterlimit:4;stroke-dasharray:none;stroke-opacity:1"
       id="rect1021"
       width="349.99997"
       height="349.99994"
       x="35"
       y="-468" />
    <g
       id="g996"
       clip-path="url(#clipPath1017)">
      <rect
         transform="scale(-1,1)"
         style="fill:#b0e5f0;fill-opacity:1;stroke:none;stroke-width:3;stroke-miterlimit:4;stroke-dasharray:none;stroke-opacity:1"
         id="rect823"
         width="350"
         height="349.99997"
         x="-385"
         y="-468" />
      <rect
         y="-238.00002"
         x="35"
         height="120"
         width="84.999992"
         id="rect839"
         style="fill:#307f90;fill-opacity:1;stroke:none;stroke-width:5;stroke-miterlimit:4;stroke-dasharray:none;stroke-opacity:1" />
      <g
         inkscape:label="Layer 1"
         id="layer1-9"
         transform="matrix(0.5,0,0,0.5,-115.52607,-142.25971)">
        <g
           transform="translate(306.90332,-452.29521)"
           id="g873">
          <path
             style="fill:#400000;fill-opacity:1;stroke:#000000;stroke-width:0;stroke-linecap:butt;stroke-linejoin:miter;stroke-miterlimit:4;stroke-dasharray:none;stroke-opacity:1"
             d="m 82.871278,103.09821 h 31.277532 l 0.0324,150.95512 -31.293739,0.0147 z"
             id="path869"
             inkscape:connector-curvature="0"
             sodipodi:nodetypes="ccccc" />
          <path
             sodipodi:nodetypes="ccccccc"
             inkscape:connector-curvature="0"
             id="path842-3"
             d="m 85.215356,81.681565 30.311954,8.122067 6.94772,-25.936968 6.07411,-4.631827 -30.27552,-8.11665 -6.0832,4.633739 z"
             style="fill:#400000;fill-opacity:1;stroke:#000000;stroke-width:0;stroke-linecap:butt;stroke-linejoin:miter;stroke-miterlimit:4;stroke-dasharray:none;stroke-opacity:1" />
        </g>
      </g>
    </g>
    <path
       style="fill:none;fill-opacity:1;stroke:#307f90;stroke-width:56.69291306;stroke-miterlimit:4;stroke-dasharray:none;stroke-opacity:1"
       d="m 899.7832,-66.757812 c -66.14321,0.116296 -130.08347,-19.795062 -180.36328,23.180265 H -45.735302 V 634.94531 c -2.874546,-0.18853 -5.751846,-0.33243 -8.630859,-0.43164 -153.728079,4e-4 -232.613909,124.62153 -232.614309,278.34961 3.9e-4,153.72812 124.62153,278.34922 278.3496106,278.34962 C 99.113117,1191.0703 197.09798,1128.76 242.92188,1031.2461 c 39.03041,19.9509 82.22091,30.4018 126.05468,30.5019 141.94052,-0.061 261.10055,-106.91493 276.57227,-248.00972 10.61436,1.28892 21.29417,1.96517 31.98633,2.02539 153.72808,-4e-4 278.34921,-124.62153 278.34961,-278.34961 -0.0699,-17.56826 -1.80289,-35.09045 -5.17579,-52.33203 131.76512,-24.52042 227.34682,-139.46104 227.42582,-273.48828 7e-4,-153.729619 -124.622,-278.352263 -278.3516,-278.351562 z"
       id="circle1000"
       inkscape:connector-curvature="0"
       transform="matrix(0.26458333,0,0,0.26458333,35,-467.99999)"
       sodipodi:nodetypes="ccccccccccccccc" />
    <path
       style="fill:#400000;fill-opacity:1;stroke:#000000;stroke-width:0;stroke-linecap:butt;stroke-linejoin:miter;stroke-miterlimit:4;stroke-dasharray:none;stroke-opacity:1"
       d="m 272.69818,-127.21656 90.93588,-24.36616 -20.85474,-77.80781 8.83325,-21.145 -90.83294,24.32619 -8.854,21.1636 z"
       id="path842-3-2"
       inkscape:connector-curvature="0"
       sodipodi:nodetypes="ccccccc" />
    <circle
       style="fill:#2f7f91;fill-opacity:1;stroke:none;stroke-width:15;stroke-miterlimit:4;stroke-dasharray:none;stroke-opacity:1"
       id="path1041"
       cx="197.71873"
       cy="-174.88492"
       r="20.372917" />
    <circle
       style="fill:#2f7f91;fill-opacity:1;stroke:none;stroke-width:15;stroke-miterlimit:4;stroke-dasharray:none;stroke-opacity:1"
       id="path1043"
       cx="236.08333"
       cy="-160.86198"
       r="11.1125" />
  </g>
</svg>
