<?xml version="1.0" encoding="UTF-8" standalone="no"?>
<!-- Created with Inkscape (http://www.inkscape.org/) -->

<svg
   xmlns:dc="http://purl.org/dc/elements/1.1/"
   xmlns:cc="http://creativecommons.org/ns#"
   xmlns:rdf="http://www.w3.org/1999/02/22-rdf-syntax-ns#"
   xmlns:svg="http://www.w3.org/2000/svg"
   xmlns="http://www.w3.org/2000/svg"
   xmlns:sodipodi="http://sodipodi.sourceforge.net/DTD/sodipodi-0.dtd"
   xmlns:inkscape="http://www.inkscape.org/namespaces/inkscape"
   width="350mm"
   height="350.00049mm"
   viewBox="0 0 350 350.00049"
   version="1.1"
   id="svg8"
   inkscape:version="0.92.3 (2405546, 2018-03-11)"
   sodipodi:docname="StairsIn3.svg"
   inkscape:export-filename="/home/nocity/Desktop/Dump/FirstEnv.png"
   inkscape:export-xdpi="96"
   inkscape:export-ydpi="96">
  <defs
     id="defs2" />
  <sodipodi:namedview
     id="base"
     pagecolor="#ffffff"
     bordercolor="#666666"
     borderopacity="1.0"
     inkscape:pageopacity="0.0"
     inkscape:pageshadow="2"
     inkscape:zoom="0.37043557"
     inkscape:cx="274.38811"
     inkscape:cy="397.16226"
     inkscape:document-units="mm"
     inkscape:current-layer="layer1"
     showgrid="false"
     inkscape:window-width="1920"
     inkscape:window-height="1055"
     inkscape:window-x="1920"
     inkscape:window-y="0"
     inkscape:window-maximized="1">
    <inkscape:grid
       type="xygrid"
       id="grid897"
       units="mm"
       spacingx="0.99999999"
       spacingy="0.99999999"
       originx="-35.000001"
       originy="-414.99948" />
  </sodipodi:namedview>
  <metadata
     id="metadata5">
    <rdf:RDF>
      <cc:Work
         rdf:about="">
        <dc:format>image/svg+xml</dc:format>
        <dc:type
           rdf:resource="http://purl.org/dc/dcmitype/StillImage" />
        <dc:title />
      </cc:Work>
    </rdf:RDF>
  </metadata>
  <g
     inkscape:label="Layer"
     inkscape:groupmode="layer"
     id="layer1"
     transform="translate(-35,467.99999)">
    <rect
       y="-468"
       x="34.999992"
       height="349.99997"
       width="350"
       id="rect823"
       style="fill:#74d0e4;fill-opacity:1;stroke:none;stroke-width:3;stroke-miterlimit:4;stroke-dasharray:none;stroke-opacity:1" />
    <path
       style="fill:#40a9c0;fill-opacity:1;stroke:none;stroke-width:5;stroke-miterlimit:4;stroke-dasharray:none;stroke-opacity:1"
       d="m 309.99999,-323.00002 v -20 H 330 v -20 l 20,0 v -19.99999 h 20 v -20 h 15 l 0,284.99999 H 210 v -124.84797 l 19.99999,-0.15203 v -20 h 20 v -20.00001 h 20 v -19.99999 h 20 v -20 z"
       id="rect925"
       inkscape:connector-curvature="0"
       sodipodi:nodetypes="ccccccccccccccccccccc" />
    <path
       style="fill:#307f90;fill-opacity:1;stroke:none;stroke-width:3.15394497;stroke-miterlimit:4;stroke-dasharray:none;stroke-opacity:1"
       d="M 34.999999,-223.00002 H 220 l 0,20 20,-0.25304 0,20.25304 20,0 0,20 h 20 l 0,20 h 20 l 0,20 h 20 l 0,5 -285.000001,-3e-5 z"
       id="rect831"
       inkscape:connector-curvature="0"
       sodipodi:nodetypes="ccccccccccccccc" />
    <path
       style="fill:#e0e0e0;fill-opacity:1;stroke:none;stroke-width:3.75;stroke-miterlimit:4;stroke-dasharray:none;stroke-opacity:1"
       d="m 51.603533,-358.65184 c 0,-18.75 37.500002,-18.75 37.500002,0 v 74.99999 H 51.603533 Z"
       id="rect871"
       inkscape:connector-curvature="0"
       sodipodi:nodetypes="ccccc" />
    <g
       transform="matrix(0.5,0,0,0.5,70.436739,-131.20303)"
       id="layer1-1"
       inkscape:label="Layer 1">
      <g
         transform="translate(18.67126,-452.29521)"
         id="g867">
        <path
           style="fill:#400000;fill-opacity:1;stroke:#000000;stroke-width:0;stroke-linecap:butt;stroke-linejoin:miter;stroke-miterlimit:4;stroke-dasharray:none;stroke-opacity:1"
           d="m 82.871278,103.09821 h 31.277532 l 0.56696,58.96429 36.5692,41.01041 1e-5,53.8616 -16.72546,1e-5 -0.75595,-46.11311 -31.75,-28.72618 -21.92262,38.55357 -34.017856,31.75 -12.851189,-13.60715 31.75,-30.99404 18.142856,-44.60119 z"
           id="path840"
           inkscape:connector-curvature="0"
           sodipodi:nodetypes="cccccccccccccc" />
        <path
           style="fill:#400000;fill-opacity:1;stroke:#000000;stroke-width:0;stroke-linecap:butt;stroke-linejoin:miter;stroke-miterlimit:4;stroke-dasharray:none;stroke-opacity:1"
           d="m 82.864489,86.907014 31.381251,2e-6 -0.002,-26.851389 4.66833,-6.046096 -31.344651,-0.0042 -4.67662,6.050296 z"
           id="path842"
           inkscape:connector-curvature="0"
           sodipodi:nodetypes="ccccccc" />
      </g>
    </g>
  </g>
</svg>
