<?xml version="1.0" encoding="UTF-8" standalone="no"?>
<!-- Created with Inkscape (http://www.inkscape.org/) -->

<svg
   xmlns:dc="http://purl.org/dc/elements/1.1/"
   xmlns:cc="http://creativecommons.org/ns#"
   xmlns:rdf="http://www.w3.org/1999/02/22-rdf-syntax-ns#"
   xmlns:svg="http://www.w3.org/2000/svg"
   xmlns="http://www.w3.org/2000/svg"
   xmlns:sodipodi="http://sodipodi.sourceforge.net/DTD/sodipodi-0.dtd"
   xmlns:inkscape="http://www.inkscape.org/namespaces/inkscape"
   width="350.00214mm"
   height="350.00006mm"
   viewBox="0 0 350.00214 350.00006"
   version="1.1"
   id="svg8"
   inkscape:version="0.92.3 (2405546, 2018-03-11)"
   sodipodi:docname="Panel4.svg"
   inkscape:export-filename="/home/nocity/Desktop/Dump/FirstEnv.png"
   inkscape:export-xdpi="96"
   inkscape:export-ydpi="96">
  <defs
     id="defs2" />
  <sodipodi:namedview
     id="base"
     pagecolor="#ffffff"
     bordercolor="#666666"
     borderopacity="1.0"
     inkscape:pageopacity="0.0"
     inkscape:pageshadow="2"
     inkscape:zoom="0.25"
     inkscape:cx="-1212.0279"
     inkscape:cy="1362.98"
     inkscape:document-units="mm"
     inkscape:current-layer="g917"
     showgrid="false"
     inkscape:window-width="1920"
     inkscape:window-height="1055"
     inkscape:window-x="1920"
     inkscape:window-y="0"
     inkscape:window-maximized="1">
    <inkscape:grid
       type="xygrid"
       id="grid897"
       units="mm"
       spacingx="0.99999999"
       spacingy="0.99999999"
       originx="-414.99999"
       originy="-34.999997" />
  </sodipodi:namedview>
  <metadata
     id="metadata5">
    <rdf:RDF>
      <cc:Work
         rdf:about="">
        <dc:format>image/svg+xml</dc:format>
        <dc:type
           rdf:resource="http://purl.org/dc/dcmitype/StillImage" />
        <dc:title />
      </cc:Work>
    </rdf:RDF>
  </metadata>
  <g
     inkscape:label="Layer"
     inkscape:groupmode="layer"
     id="layer1"
     transform="translate(-415,88.000058)">
    <g
       id="g4789"
       inkscape:label="Panel4"
       transform="translate(0,-503)">
      <g
         id="g4813"
         inkscape:label="Background">
        <rect
           clip-path="none"
           inkscape:label="rect4785"
           mask="none"
           style="fill:#e48f74;fill-opacity:1;stroke-width:0.26458332"
           id="rect4785"
           width="350"
           height="350"
           x="415"
           y="415" />
        <circle
           cx="530.26276"
           cy="606.49677"
           id="circle949"
           style="fill:#d47458;fill-opacity:1;stroke-width:0.56158656"
           r="84.901283" />
        <path
           style="fill:#d47458;fill-opacity:1;stroke-width:0.56158656"
           id="circle952"
           sodipodi:type="arc"
           sodipodi:cx="765"
           sodipodi:cy="415"
           sodipodi:rx="85"
           sodipodi:ry="85"
           sodipodi:start="1.5707713"
           sodipodi:end="3.1415803"
           d="M 765.00213,500 A 85,85 0 0 1 704.89705,475.1052 85,85 0 0 1 680,415.00105 L 765,415 Z" />
      </g>
      <g
         transform="translate(-5.0000058,-40.000424)"
         id="g917"
         inkscape:label="ExpFace">
        <rect
           y="455.00037"
           x="520"
           height="180.00006"
           width="150"
           id="rect911"
           style="fill:#808080;fill-opacity:1;stroke-width:0.28116637" />
        <rect
           style="fill:#c0c0c0;fill-opacity:1;stroke-width:0.09354436"
           id="rect913"
           width="35.000004"
           height="50.000034"
           x="545"
           y="485.00037" />
        <rect
           y="485.00037"
           x="610"
           height="50.000034"
           width="35.000004"
           id="rect919"
           style="fill:#c0c0c0;fill-opacity:1;stroke-width:0.09354436" />
        <rect
           y="565.00037"
           x="545"
           height="34.999981"
           width="100.00002"
           id="rect923"
           style="fill:#c0c0c0;fill-opacity:1;stroke-width:0.13229164" />
        <rect
           style="fill:#707070;fill-opacity:1;stroke-width:0.24162367"
           id="rect925"
           width="29.999994"
           height="180.00006"
           x="515"
           y="455.00037" />
        <rect
           style="fill:#707070;fill-opacity:1;stroke-width:0.24162368"
           id="rect927"
           width="30"
           height="180.00006"
           x="645"
           y="455.00037" />
        <rect
           style="fill:#808080;fill-opacity:1;stroke-width:0.26458332"
           id="rect933"
           width="2.0000012"
           height="40"
           x="594"
           y="565.00037" />
        <rect
           y="565.00037"
           x="574"
           height="40"
           width="2.0000012"
           id="rect935"
           style="fill:#808080;fill-opacity:1;stroke-width:0.26458332" />
        <rect
           style="fill:#808080;fill-opacity:1;stroke-width:0.26458332"
           id="rect937"
           width="2.0000012"
           height="40"
           x="554"
           y="565.00037" />
        <rect
           y="565.00037"
           x="614"
           height="40"
           width="2.0000012"
           id="rect939"
           style="fill:#808080;fill-opacity:1;stroke-width:0.26458332" />
        <rect
           style="fill:#808080;fill-opacity:1;stroke-width:0.26458332"
           id="rect941"
           width="2.0000012"
           height="40"
           x="634"
           y="565.00037" />
      </g>
      <g
         id="g4982"
         inkscape:label="SlotBar"
         transform="translate(-5.4000126e-6,-14.999998)">
        <rect
           style="fill:#606060;fill-opacity:1;stroke-width:0.7826845"
           id="rect947"
           width="330"
           height="175"
           x="425"
           y="605" />
        <rect
           y="605"
           x="425"
           height="160"
           width="330"
           id="rect4979"
           style="fill:#707070;fill-opacity:1;stroke-width:0.23575915" />
        <rect
           style="fill:#707070;fill-opacity:1;stroke-width:0.25029168"
           id="rect4986"
           width="85.909088"
           height="131.25"
           x="439.54544"
           y="619.375" />
        <rect
           style="fill:#606060;fill-opacity:1;stroke-width:0.25029168"
           id="rect4996"
           width="15.000005"
           height="150"
           x="520"
           y="610" />
        <rect
           y="610"
           x="430"
           height="150"
           width="14.999995"
           id="rect4998"
           style="fill:#606060;fill-opacity:1;stroke-width:0.25029168" />
        <path
           style="fill:#505050;fill-opacity:1;stroke-width:0.25029168"
           d="m 430,610 h 104.99999 l -15,15 H 445 Z"
           id="rect4988"
           inkscape:connector-curvature="0"
           sodipodi:nodetypes="ccccc" />
        <path
           sodipodi:nodetypes="ccccc"
           inkscape:connector-curvature="0"
           id="path4991"
           d="m 430,760 h 104.99999 l -15,-15 H 445 Z"
           style="fill:#909090;fill-opacity:1;stroke-width:0.25029168" />
        <rect
           y="619.375"
           x="654.54541"
           height="131.25"
           width="85.909088"
           id="rect899"
           style="fill:#707070;fill-opacity:1;stroke-width:0.25029168" />
        <rect
           y="610"
           x="735"
           height="150"
           width="15.000005"
           id="rect901"
           style="fill:#606060;fill-opacity:1;stroke-width:0.25029168" />
        <rect
           style="fill:#606060;fill-opacity:1;stroke-width:0.25029168"
           id="rect903"
           width="14.999995"
           height="150"
           x="645"
           y="610" />
        <path
           sodipodi:nodetypes="ccccc"
           inkscape:connector-curvature="0"
           id="path905"
           d="m 644.99999,610 h 104.99999 l -15,15 h -74.99999 z"
           style="fill:#505050;fill-opacity:1;stroke-width:0.25029168" />
        <path
           style="fill:#909090;fill-opacity:1;stroke-width:0.25029168"
           d="m 644.99999,760 h 104.99999 l -15,-15 h -74.99999 z"
           id="path907"
           inkscape:connector-curvature="0"
           sodipodi:nodetypes="ccccc" />
        <rect
           style="fill:#606060;fill-opacity:1;stroke-width:0.26787019"
           id="rect909"
           width="99.999992"
           height="164"
           x="540"
           y="605" />
        <rect
           style="fill:#909090;fill-opacity:1;stroke-width:0;stroke-miterlimit:4;stroke-dasharray:none"
           id="rect1289"
           width="110"
           height="10.000002"
           x="535"
           y="770" />
      </g>
    </g>
  </g>
</svg>
