<?xml version="1.0" encoding="UTF-8" standalone="no"?>
<!-- Created with Inkscape (http://www.inkscape.org/) -->

<svg
   xmlns:dc="http://purl.org/dc/elements/1.1/"
   xmlns:cc="http://creativecommons.org/ns#"
   xmlns:rdf="http://www.w3.org/1999/02/22-rdf-syntax-ns#"
   xmlns:svg="http://www.w3.org/2000/svg"
   xmlns="http://www.w3.org/2000/svg"
   xmlns:sodipodi="http://sodipodi.sourceforge.net/DTD/sodipodi-0.dtd"
   xmlns:inkscape="http://www.inkscape.org/namespaces/inkscape"
   width="350mm"
   height="350mm"
   viewBox="0 0 350 350"
   version="1.1"
   id="svg8"
   inkscape:version="0.92.3 (2405546, 2018-03-11)"
   sodipodi:docname="Upper2.svg"
   inkscape:export-filename="/home/nocity/Desktop/Dump/FirstEnv.png"
   inkscape:export-xdpi="96"
   inkscape:export-ydpi="96">
  <defs
     id="defs2" />
  <sodipodi:namedview
     id="base"
     pagecolor="#ffffff"
     bordercolor="#666666"
     borderopacity="1.0"
     inkscape:pageopacity="0.0"
     inkscape:pageshadow="2"
     inkscape:zoom="0.35355339"
     inkscape:cx="437.27536"
     inkscape:cy="500.04449"
     inkscape:document-units="mm"
     inkscape:current-layer="g4672"
     showgrid="false"
     inkscape:window-width="1920"
     inkscape:window-height="1055"
     inkscape:window-x="1920"
     inkscape:window-y="0"
     inkscape:window-maximized="1">
    <inkscape:grid
       type="xygrid"
       id="grid897"
       units="mm"
       spacingx="0.99999999"
       spacingy="0.99999999"
       originx="-415.00002"
       originy="-415.00001" />
  </sodipodi:namedview>
  <metadata
     id="metadata5">
    <rdf:RDF>
      <cc:Work
         rdf:about="">
        <dc:format>image/svg+xml</dc:format>
        <dc:type
           rdf:resource="http://purl.org/dc/dcmitype/StillImage" />
        <dc:title></dc:title>
      </cc:Work>
    </rdf:RDF>
  </metadata>
  <g
     inkscape:label="Layer"
     inkscape:groupmode="layer"
     id="layer1"
     transform="translate(-415,467.99999)">
    <g
       id="g4691"
       inkscape:label="Panel2"
       transform="translate(216.15146,-179.14518)">
      <g
         id="g4672"
         transform="translate(0,-503)"
         inkscape:label="Env">
        <rect
           style="fill:#c05f40;fill-opacity:1;stroke-width:0.26458332"
           id="rect930"
           width="350"
           height="350"
           x="198.84854"
           y="214.14519" />
        <ellipse
           style="fill:#a85338;fill-opacity:1;stroke-width:0.33866665"
           id="path4649"
           cx="500.72858"
           cy="525.56177"
           rx="34.210499"
           ry="17.105249" />
        <ellipse
           ry="12.828938"
           rx="25.657875"
           cy="557.31335"
           cx="244.5775"
           id="ellipse4651"
           style="fill:#a85338;fill-opacity:1;stroke-width:0.25399998" />
        <rect
           y="214.14519"
           x="198.84854"
           height="250"
           width="350"
           id="rect4635"
           style="fill:#e48f74;fill-opacity:1;stroke-width:0.26458332" />
        <circle
           style="fill:#d47458;fill-opacity:1;stroke-width:0.34590563"
           id="path4637"
           cy="361.1434"
           cx="478.84015"
           r="52.294399" />
        <circle
           r="30.378298"
           cx="268.23175"
           cy="283.84906"
           id="circle4655"
           style="fill:#d47458;fill-opacity:1;stroke-width:0.20093976"
           inkscape:label="circle4655" />
      </g>
      <g
         transform="matrix(1.2315815,0,0,1.2315815,-443.26314,267.70361)"
         id="layer1-3"
         inkscape:label="Layer 1">
        <g
           id="g879"
           transform="translate(562.83202,-452.29521)">
          <path
             sodipodi:nodetypes="cccccccccccc"
             inkscape:connector-curvature="0"
             id="path875"
             d="m 82.871278,103.09821 h 31.277532 l 0.56696,58.96429 36.56921,94.87201 -19.74927,1e-5 -30.23809,-68.79167 -12.473218,32.50595 -37.419641,31.75 -12.851189,-13.60715 35.151785,-30.99404 9.449404,-44.60119 z"
             style="fill:#400000;fill-opacity:1;stroke:#000000;stroke-width:0;stroke-linecap:butt;stroke-linejoin:miter;stroke-miterlimit:4;stroke-dasharray:none;stroke-opacity:1" />
          <path
             style="fill:#400000;fill-opacity:1;stroke:#000000;stroke-width:0;stroke-linecap:butt;stroke-linejoin:miter;stroke-miterlimit:4;stroke-dasharray:none;stroke-opacity:1"
             d="m 116.19227,91.011365 -30.311956,-8.122063 6.951583,-25.935932 -2.944416,-7.048333 30.277689,8.108535 2.95134,7.054536 z"
             id="path842-6"
             inkscape:connector-curvature="0"
             sodipodi:nodetypes="ccccccc" />
        </g>
      </g>
    </g>
  </g>
</svg>
