<?xml version="1.0" encoding="UTF-8" standalone="no"?>
<!-- Created with Inkscape (http://www.inkscape.org/) -->

<svg
   xmlns:dc="http://purl.org/dc/elements/1.1/"
   xmlns:cc="http://creativecommons.org/ns#"
   xmlns:rdf="http://www.w3.org/1999/02/22-rdf-syntax-ns#"
   xmlns:svg="http://www.w3.org/2000/svg"
   xmlns="http://www.w3.org/2000/svg"
   xmlns:sodipodi="http://sodipodi.sourceforge.net/DTD/sodipodi-0.dtd"
   xmlns:inkscape="http://www.inkscape.org/namespaces/inkscape"
   width="350mm"
   height="350.00049mm"
   viewBox="0 0 350 350.00049"
   version="1.1"
   id="svg8"
   inkscape:version="0.92.3 (2405546, 2018-03-11)"
   sodipodi:docname="Upper9.svg"
   inkscape:export-filename="/home/nocity/Desktop/Dump/FirstEnv.png"
   inkscape:export-xdpi="96"
   inkscape:export-ydpi="96">
  <defs
     id="defs2" />
  <sodipodi:namedview
     id="base"
     pagecolor="#ffffff"
     bordercolor="#666666"
     borderopacity="1.0"
     inkscape:pageopacity="0.0"
     inkscape:pageshadow="2"
     inkscape:zoom="0.5"
     inkscape:cx="320.36468"
     inkscape:cy="764.94914"
     inkscape:document-units="mm"
     inkscape:current-layer="g4744"
     showgrid="false"
     inkscape:window-width="1920"
     inkscape:window-height="1055"
     inkscape:window-x="1920"
     inkscape:window-y="0"
     inkscape:window-maximized="1">
    <inkscape:grid
       type="xygrid"
       id="grid897"
       units="mm"
       spacingx="0.99999999"
       spacingy="0.99999999"
       originx="-35.000001"
       originy="-414.99948" />
  </sodipodi:namedview>
  <metadata
     id="metadata5">
    <rdf:RDF>
      <cc:Work
         rdf:about="">
        <dc:format>image/svg+xml</dc:format>
        <dc:type
           rdf:resource="http://purl.org/dc/dcmitype/StillImage" />
        <dc:title></dc:title>
      </cc:Work>
    </rdf:RDF>
  </metadata>
  <g
     inkscape:label="Layer"
     inkscape:groupmode="layer"
     id="layer1"
     transform="translate(-35,467.99999)">
    <g
       transform="translate(-163.84854,-179.14518)"
       inkscape:label="Panel1"
       id="g4744">
      <g
         inkscape:label="Env"
         transform="translate(0,-503)"
         id="g4736">
        <rect
           y="214.14519"
           x="-548.84851"
           height="350"
           width="350"
           id="rect4720"
           style="fill:#c05f40;fill-opacity:1;stroke-width:0.26458332"
           transform="scale(-1,1)" />
        <ellipse
           style="fill:#a85338;fill-opacity:1;stroke-width:0.25399998"
           id="ellipse4724"
           cx="-215.16216"
           cy="525.13409"
           rx="25.657875"
           ry="12.828938"
           transform="scale(-1,1)" />
        <rect
           style="fill:#e48f74;fill-opacity:1;stroke-width:0.28496495"
           id="rect4728"
           width="350"
           height="289.99997"
           x="-548.84851"
           y="214.14519"
           transform="scale(-1,1)" />
        <circle
           id="circle4730"
           style="fill:#d47458;fill-opacity:1;stroke-width:0.34590563"
           transform="scale(-1,1)"
           cx="-220.5444"
           cy="346.07849"
           r="52.294399" />
        <rect
           style="fill:#74d0e4;fill-opacity:1;stroke:none;stroke-width:5;stroke-miterlimit:4;stroke-dasharray:none;stroke-opacity:1"
           id="rect831"
           width="65"
           height="270"
           x="-518.84851"
           y="244.14516"
           transform="scale(-1,1)" />
        <path
           style="fill:#40a9c0;fill-opacity:1;stroke:none;stroke-width:5;stroke-miterlimit:4;stroke-dasharray:none;stroke-opacity:1"
           d="m 518.84854,504.14516 h -90 l 30,30 30,30 h 30 z"
           id="rect828"
           inkscape:connector-curvature="0"
           sodipodi:nodetypes="cccccc" />
        <path
           style="fill:#c05b40;fill-opacity:1;stroke-width:0.28553408"
           d="m 538.84854,243.14517 -109.11595,1e-5 V 539.1452 h 29.11595 V 284.14519 l 25,-3.08553 v -21.91449 l 30,-5 -25,18.13211 25,5.05687 25,-3.10145 z"
           id="rect1022"
           inkscape:connector-curvature="0"
           sodipodi:nodetypes="cccccccccccc" />
        <path
           style="fill:#904530;fill-opacity:1;stroke-width:0.26458332"
           d="m 548.84854,214.14519 h -145 v 289.99999 l 30,30 V 279.14519 l 25,-3.10859 v -21.89143 l 30,-5 v 23.13211 l 25,-3.13209 v 294.99999 h 35 z"
           id="rect1016"
           inkscape:connector-curvature="0"
           sodipodi:nodetypes="ccccccccccccc" />
      </g>
      <g
         transform="translate(214.37467,249.4918)"
         id="layer1-3"
         inkscape:label="Layer 1">
        <g
           transform="translate(18.67126,-452.29521)"
           id="g867">
          <path
             style="fill:#400000;fill-opacity:1;stroke:#000000;stroke-width:0;stroke-linecap:butt;stroke-linejoin:miter;stroke-miterlimit:4;stroke-dasharray:none;stroke-opacity:1"
             d="m 82.871278,103.09821 h 31.277532 l 0.56696,58.96429 36.5692,41.01041 1e-5,53.8616 -16.72546,1e-5 -0.75595,-46.11311 -31.75,-28.72618 -21.92262,38.55357 -34.017856,31.75 -12.851189,-13.60715 31.75,-30.99404 18.142856,-44.60119 z"
             id="path840"
             inkscape:connector-curvature="0"
             sodipodi:nodetypes="cccccccccccccc" />
          <path
             style="fill:#400000;fill-opacity:1;stroke:#000000;stroke-width:0;stroke-linecap:butt;stroke-linejoin:miter;stroke-miterlimit:4;stroke-dasharray:none;stroke-opacity:1"
             d="m 82.864489,86.907014 31.381251,2e-6 -0.002,-26.851389 4.66833,-6.046096 -31.344651,-0.0042 -4.67662,6.050296 z"
             id="path842"
             inkscape:connector-curvature="0"
             sodipodi:nodetypes="ccccccc" />
        </g>
      </g>
    </g>
  </g>
</svg>
