<?xml version="1.0" encoding="UTF-8" standalone="no"?>
<!-- Created with Inkscape (http://www.inkscape.org/) -->

<svg
   xmlns:dc="http://purl.org/dc/elements/1.1/"
   xmlns:cc="http://creativecommons.org/ns#"
   xmlns:rdf="http://www.w3.org/1999/02/22-rdf-syntax-ns#"
   xmlns:svg="http://www.w3.org/2000/svg"
   xmlns="http://www.w3.org/2000/svg"
   xmlns:sodipodi="http://sodipodi.sourceforge.net/DTD/sodipodi-0.dtd"
   xmlns:inkscape="http://www.inkscape.org/namespaces/inkscape"
   width="350mm"
   height="350.00049mm"
   viewBox="0 0 350 350.00049"
   version="1.1"
   id="svg8"
   inkscape:version="0.92.3 (2405546, 2018-03-11)"
   sodipodi:docname="Panel4.svg"
   inkscape:export-filename="/home/nocity/Desktop/Dump/FirstEnv.png"
   inkscape:export-xdpi="96"
   inkscape:export-ydpi="96">
  <defs
     id="defs2" />
  <sodipodi:namedview
     id="base"
     pagecolor="#ffffff"
     bordercolor="#666666"
     borderopacity="1.0"
     inkscape:pageopacity="0.0"
     inkscape:pageshadow="2"
     inkscape:zoom="0.5"
     inkscape:cx="603.03562"
     inkscape:cy="830.77717"
     inkscape:document-units="mm"
     inkscape:current-layer="g873"
     showgrid="false"
     inkscape:window-width="1920"
     inkscape:window-height="1055"
     inkscape:window-x="1920"
     inkscape:window-y="0"
     inkscape:window-maximized="1">
    <inkscape:grid
       type="xygrid"
       id="grid897"
       units="mm"
       spacingx="0.99999999"
       spacingy="0.99999999"
       originx="-35.000001"
       originy="-414.99948" />
  </sodipodi:namedview>
  <metadata
     id="metadata5">
    <rdf:RDF>
      <cc:Work
         rdf:about="">
        <dc:format>image/svg+xml</dc:format>
        <dc:type
           rdf:resource="http://purl.org/dc/dcmitype/StillImage" />
        <dc:title></dc:title>
      </cc:Work>
    </rdf:RDF>
  </metadata>
  <g
     inkscape:label="Layer"
     inkscape:groupmode="layer"
     id="layer1"
     transform="translate(-35,467.99999)">
    <g
       transform="translate(-163.84854,-179.14518)"
       inkscape:label="Panel1"
       id="g4744">
      <g
         transform="translate(-44.372226,132.92087)"
         id="layer1-3"
         inkscape:label="Layer 1">
        <g
           id="g873"
           transform="translate(306.90332,-452.29521)">
          <rect
             style="fill:#e47474;fill-opacity:1;stroke:none;stroke-width:3;stroke-miterlimit:4;stroke-dasharray:none;stroke-opacity:1"
             id="rect823"
             width="350"
             height="349.99997"
             x="-63.682556"
             y="30.519506" />
          <rect
             style="fill:#c04040;fill-opacity:1;stroke:none;stroke-width:3.07793522;stroke-miterlimit:4;stroke-dasharray:none;stroke-opacity:1"
             id="rect831"
             width="350"
             height="99.999969"
             x="-63.682556"
             y="280.5195" />
          <rect
             style="fill:#d45858;fill-opacity:1;stroke:none;stroke-width:3;stroke-miterlimit:4;stroke-dasharray:none;stroke-opacity:1"
             id="rect827"
             width="75"
             height="75"
             x="125.82399"
             y="92.433716"
             transform="rotate(30)" />
          <rect
             transform="rotate(60)"
             y="-278.78082"
             x="114.66319"
             height="75"
             width="75"
             id="rect829"
             style="fill:#d45858;fill-opacity:1;stroke:none;stroke-width:3;stroke-miterlimit:4;stroke-dasharray:none;stroke-opacity:1" />
          <g
             inkscape:label="Red"
             id="layer1-3-2"
             transform="matrix(1.7950344,0,0,1.7950344,-944.44321,947.26644)">
            <g
               inkscape:label="Layer 1"
               id="layer1-35"
               transform="matrix(0.98377151,-0.19967869,0.19967869,0.98377151,-261.25106,171.9935)">
              <g
                 transform="translate(306.90332,-452.29521)"
                 id="g873-9" />
            </g>
          </g>
          <rect
             style="fill:#a83838;fill-opacity:1;stroke:none;stroke-width:4.5143342;stroke-miterlimit:4;stroke-dasharray:none;stroke-opacity:1"
             id="rect883"
             width="40.410221"
             height="35.021416"
             x="537.29718"
             y="253.21271"
             transform="matrix(0.91914501,0.39391935,-0.79543183,0.60604307,0,0)" />
          <rect
             transform="matrix(-0.91914501,0.39391935,0.79543183,0.60604307,0,0)"
             y="362.19003"
             x="207.59409"
             height="35.021416"
             width="40.410221"
             id="rect885"
             style="fill:#a83838;fill-opacity:1;stroke:none;stroke-width:4.5143342;stroke-miterlimit:4;stroke-dasharray:none;stroke-opacity:1" />
          <rect
             y="30.519506"
             x="-36.089756"
             height="280"
             width="15.272727"
             id="rect955"
             style="fill:#903030;fill-opacity:1;stroke:none;stroke-width:3.0545454;stroke-miterlimit:4;stroke-dasharray:none;stroke-opacity:1" />
          <rect
             style="fill:#903030;fill-opacity:1;stroke:none;stroke-width:3;stroke-miterlimit:4;stroke-dasharray:none;stroke-opacity:1"
             id="rect957"
             width="80"
             height="15.000003"
             x="-110.95339"
             y="270.5195" />
          <rect
             y="215.5195"
             x="-110.95339"
             height="15.000003"
             width="80"
             id="rect959"
             style="fill:#903030;fill-opacity:1;stroke:none;stroke-width:3;stroke-miterlimit:4;stroke-dasharray:none;stroke-opacity:1" />
          <rect
             style="fill:#903030;fill-opacity:1;stroke:none;stroke-width:3;stroke-miterlimit:4;stroke-dasharray:none;stroke-opacity:1"
             id="rect963"
             width="80"
             height="15.000003"
             x="-110.95339"
             y="160.5195" />
          <rect
             style="fill:#903030;fill-opacity:1;stroke:none;stroke-width:3;stroke-miterlimit:4;stroke-dasharray:none;stroke-opacity:1"
             id="rect973"
             width="80"
             height="15.000003"
             x="-110.95339"
             y="105.51951" />
          <rect
             y="50.519501"
             x="-110.95339"
             height="15.000003"
             width="80"
             id="rect975"
             style="fill:#903030;fill-opacity:1;stroke:none;stroke-width:3;stroke-miterlimit:4;stroke-dasharray:none;stroke-opacity:1" />
          <g
             transform="translate(83.076911,531.82447)"
             id="layer1-356"
             inkscape:label="Layer 1">
            <g
               transform="translate(18.67126,-452.29521)"
               id="g867">
              <path
                 style="fill:#400000;fill-opacity:1;stroke:#000000;stroke-width:0;stroke-linecap:butt;stroke-linejoin:miter;stroke-miterlimit:4;stroke-dasharray:none;stroke-opacity:1"
                 d="m 82.871278,103.09821 h 31.277532 l 0.56696,58.96429 36.5692,41.01041 1e-5,53.8616 -16.72546,1e-5 -0.75595,-46.11311 -31.75,-28.72618 -21.92262,38.55357 -34.017856,31.75 -12.851189,-13.60715 31.75,-30.99404 18.142856,-44.60119 z"
                 id="path840"
                 inkscape:connector-curvature="0"
                 sodipodi:nodetypes="cccccccccccccc" />
              <path
                 style="fill:#400000;fill-opacity:1;stroke:#000000;stroke-width:0;stroke-linecap:butt;stroke-linejoin:miter;stroke-miterlimit:4;stroke-dasharray:none;stroke-opacity:1"
                 d="m 82.864489,86.907014 31.381251,2e-6 -0.002,-26.851389 4.66833,-6.046096 -31.344651,-0.0042 -4.67662,6.050296 z"
                 id="path842"
                 inkscape:connector-curvature="0"
                 sodipodi:nodetypes="ccccccc" />
            </g>
          </g>
        </g>
      </g>
    </g>
  </g>
</svg>
