<?xml version="1.0" encoding="UTF-8" standalone="no"?>
<!-- Created with Inkscape (http://www.inkscape.org/) -->

<svg
   xmlns:dc="http://purl.org/dc/elements/1.1/"
   xmlns:cc="http://creativecommons.org/ns#"
   xmlns:rdf="http://www.w3.org/1999/02/22-rdf-syntax-ns#"
   xmlns:svg="http://www.w3.org/2000/svg"
   xmlns="http://www.w3.org/2000/svg"
   xmlns:sodipodi="http://sodipodi.sourceforge.net/DTD/sodipodi-0.dtd"
   xmlns:inkscape="http://www.inkscape.org/namespaces/inkscape"
   width="350mm"
   height="350.00049mm"
   viewBox="0 0 350 350.00049"
   version="1.1"
   id="svg8"
   inkscape:version="0.92.3 (2405546, 2018-03-11)"
   sodipodi:docname="Panel5.svg"
   inkscape:export-filename="/home/nocity/Desktop/Dump/FirstEnv.png"
   inkscape:export-xdpi="96"
   inkscape:export-ydpi="96">
  <defs
     id="defs2" />
  <sodipodi:namedview
     id="base"
     pagecolor="#ffffff"
     bordercolor="#666666"
     borderopacity="1.0"
     inkscape:pageopacity="0.0"
     inkscape:pageshadow="2"
     inkscape:zoom="0.5"
     inkscape:cx="380.13059"
     inkscape:cy="621.40561"
     inkscape:document-units="mm"
     inkscape:current-layer="g873"
     showgrid="true"
     inkscape:window-width="1920"
     inkscape:window-height="1055"
     inkscape:window-x="1920"
     inkscape:window-y="0"
     inkscape:window-maximized="1">
    <inkscape:grid
       type="xygrid"
       id="grid897"
       units="mm"
       spacingx="0.99999999"
       spacingy="0.99999999"
       originx="-35.000001"
       originy="-414.99948" />
  </sodipodi:namedview>
  <metadata
     id="metadata5">
    <rdf:RDF>
      <cc:Work
         rdf:about="">
        <dc:format>image/svg+xml</dc:format>
        <dc:type
           rdf:resource="http://purl.org/dc/dcmitype/StillImage" />
        <dc:title />
      </cc:Work>
    </rdf:RDF>
  </metadata>
  <g
     inkscape:label="Layer"
     inkscape:groupmode="layer"
     id="layer1"
     transform="translate(-35,467.99999)">
    <g
       transform="translate(-163.84854,-179.14518)"
       inkscape:label="Panel1"
       id="g4744">
      <rect
         style="fill:#e0e0e0;fill-opacity:1;stroke:none;stroke-width:3.45918536;stroke-miterlimit:4;stroke-dasharray:none;stroke-opacity:1"
         id="rect903"
         width="350.00003"
         height="350"
         x="198.84854"
         y="-288.85483" />
      <g
         transform="translate(-44.372226,132.92087)"
         id="layer1-3"
         inkscape:label="Layer 1">
        <g
           id="g873"
           transform="translate(306.90332,-452.29521)">
          <rect
             style="fill:#e47474;fill-opacity:1;stroke:none;stroke-width:3;stroke-miterlimit:4;stroke-dasharray:none;stroke-opacity:1"
             id="rect823"
             width="260"
             height="349.99997"
             x="26.317442"
             y="30.519506" />
          <rect
             style="fill:#c04040;fill-opacity:1;stroke:none;stroke-width:3;stroke-miterlimit:4;stroke-dasharray:none;stroke-opacity:1"
             id="rect831"
             width="260"
             height="30.000002"
             x="26.317442"
             y="350.5195" />
          <rect
             style="fill:#ffa9a9;fill-opacity:1;stroke:none;stroke-width:3;stroke-miterlimit:4;stroke-dasharray:none;stroke-opacity:1"
             id="rect864"
             width="20"
             height="349.99997"
             x="11.317446"
             y="30.519506" />
          <path
             style="fill:#400000;fill-opacity:1;stroke:#000000;stroke-width:0;stroke-linecap:butt;stroke-linejoin:miter;stroke-miterlimit:4;stroke-dasharray:none;stroke-opacity:1"
             d="m -174.29978,347.25701 h 145.626524 l -0.0093,-124.60546 21.6636613,-28.05729 -145.4566753,-0.0186 -21.70214,28.07678 z"
             id="path842-3"
             inkscape:connector-curvature="0"
             sodipodi:nodetypes="ccccccc" />
          <rect
             style="fill:#d45858;fill-opacity:1;stroke:none;stroke-width:3;stroke-miterlimit:4;stroke-dasharray:none;stroke-opacity:1"
             id="rect827"
             width="75"
             height="75"
             x="115.99361"
             y="23.175753"
             transform="rotate(30)" />
          <rect
             transform="rotate(60)"
             y="-234.70804"
             x="191.01244"
             height="75"
             width="75"
             id="rect829"
             style="fill:#d45858;fill-opacity:1;stroke:none;stroke-width:3;stroke-miterlimit:4;stroke-dasharray:none;stroke-opacity:1" />
        </g>
      </g>
    </g>
  </g>
</svg>
