<?xml version="1.0" encoding="UTF-8" standalone="no"?>
<!-- Created with Inkscape (http://www.inkscape.org/) -->

<svg
   xmlns:dc="http://purl.org/dc/elements/1.1/"
   xmlns:cc="http://creativecommons.org/ns#"
   xmlns:rdf="http://www.w3.org/1999/02/22-rdf-syntax-ns#"
   xmlns:svg="http://www.w3.org/2000/svg"
   xmlns="http://www.w3.org/2000/svg"
   xmlns:sodipodi="http://sodipodi.sourceforge.net/DTD/sodipodi-0.dtd"
   xmlns:inkscape="http://www.inkscape.org/namespaces/inkscape"
   width="350mm"
   height="350.00049mm"
   viewBox="0 0 350 350.00049"
   version="1.1"
   id="svg8"
   inkscape:version="0.92.3 (2405546, 2018-03-11)"
   sodipodi:docname="PanelBackwards2.svg"
   inkscape:export-filename="/home/nocity/Desktop/Dump/FirstEnv.png"
   inkscape:export-xdpi="96"
   inkscape:export-ydpi="96">
  <defs
     id="defs2" />
  <sodipodi:namedview
     id="base"
     pagecolor="#ffffff"
     bordercolor="#666666"
     borderopacity="1.0"
     inkscape:pageopacity="0.0"
     inkscape:pageshadow="2"
     inkscape:zoom="0.35355339"
     inkscape:cx="-7.1450528"
     inkscape:cy="545.12593"
     inkscape:document-units="mm"
     inkscape:current-layer="layer1-7"
     showgrid="false"
     inkscape:window-width="1920"
     inkscape:window-height="1055"
     inkscape:window-x="1920"
     inkscape:window-y="0"
     inkscape:window-maximized="1">
    <inkscape:grid
       type="xygrid"
       id="grid897"
       units="mm"
       spacingx="0.99999999"
       spacingy="0.99999999"
       originx="-35.000001"
       originy="-414.99948" />
  </sodipodi:namedview>
  <metadata
     id="metadata5">
    <rdf:RDF>
      <cc:Work
         rdf:about="">
        <dc:format>image/svg+xml</dc:format>
        <dc:type
           rdf:resource="http://purl.org/dc/dcmitype/StillImage" />
        <dc:title></dc:title>
      </cc:Work>
    </rdf:RDF>
  </metadata>
  <g
     inkscape:label="Layer"
     inkscape:groupmode="layer"
     id="layer1"
     transform="translate(-35,467.99999)">
    <g
       transform="translate(-163.84854,-179.14518)"
       inkscape:label="Panel1"
       id="g4744">
      <rect
         style="fill:#ffffff;fill-opacity:1;stroke:none;stroke-width:5;stroke-miterlimit:4;stroke-dasharray:none;stroke-opacity:1"
         id="rect822"
         width="349.99997"
         height="349.99997"
         x="198.84854"
         y="-288.85483" />
      <rect
         style="fill:#e0e0e0;fill-opacity:1;stroke:none;stroke-width:2.63653207;stroke-miterlimit:4;stroke-dasharray:none;stroke-opacity:1"
         id="rect903"
         width="350.00003"
         height="203.32297"
         x="198.84854"
         y="-288.85483" />
      <g
         transform="matrix(-1,0,0,1,830.57307,-184.10884)"
         id="layer1-35"
         inkscape:label="Layer 1">
        <g
           transform="translate(291.93623,-78.117866)"
           id="g903">
          <path
             style="fill:#400000;fill-opacity:1;stroke:#000000;stroke-width:0;stroke-linecap:butt;stroke-linejoin:miter;stroke-miterlimit:4;stroke-dasharray:none;stroke-opacity:1"
             d="m 121.80283,109.52381 24.47396,10.20535 -32.11295,55.28889 0.0174,79.03528 -31.293739,0.0147 -0.0101,-82.0737 z"
             id="path899"
             inkscape:connector-curvature="0"
             sodipodi:nodetypes="ccccccc" />
          <path
             style="fill:#400000;fill-opacity:1;stroke:#000000;stroke-width:0;stroke-linecap:butt;stroke-linejoin:miter;stroke-miterlimit:4;stroke-dasharray:none;stroke-opacity:1"
             d="m 126.16759,91.711439 27.17696,15.690621 13.42396,-23.254979 7.06594,-2.901903 -27.14326,-15.675789 -7.07522,2.901395 z"
             id="path842-5"
             inkscape:connector-curvature="0"
             sodipodi:nodetypes="ccccccc" />
          <g
             transform="matrix(-0.08482459,0,0,0.08482459,246.48167,271.33817)"
             id="layer1-7"
             inkscape:label="Layer">
            <path
               sodipodi:nodetypes="sssss"
               inkscape:connector-curvature="0"
               id="path836"
               d="m 560,-347.01667 c 0,132.54834 -107.45166,164.85834 -240,164.85834 -132.54834,0 -240,-32.31 -240,-164.85834 0,-132.54834 107.45166,-240 240,-240 132.54834,0 240,107.45166 240,240 z"
               style="fill:#606060;fill-opacity:1;stroke:none;stroke-width:25;stroke-miterlimit:4;stroke-dasharray:none;stroke-opacity:1" />
          </g>
        </g>
      </g>
    </g>
  </g>
</svg>
